{"status": "ok", "total_hits": 10000, "page": 1, "total_pages": 1000, "page_size": 10, "articles": [{"title": "Mirror Protocol Achieves Market Capitalization of $9.63 Million (MIR)", "author": "Trevor Kearing", "published_date": "2022-11-16 05:38:48", "published_date_precision": "timezone unknown", "link": "https://www.dailypolitical.com/2022/11/15/mirror-protocol-achieves-market-capitalization-of-9-63-million-mir.html", "clean_url": "dailypolitical.com", "excerpt": "Mirror Protocol (MIR) traded 3.8% higher against the dollar during the twenty-four hour period ending at 16:00 PM E.T. on November 15th. Mirror Protocol has a total market capitalization of $9.63\u2026", "summary": "Mirror Protocol (MIR) traded 3.8% higher against the dollar during the twenty-four hour period ending at 16:00 PM E.T. on November 15th. Mirror Protocol has a total market capitalization of $9.63 million and $3.15 million worth of Mirror Protocol was traded on exchanges in the last 24 hours. One Mirror Protocol token can now be purchased for approximately $0.12 or 0.00000737 BTC on major cryptocurrency exchanges. During the last seven days, Mirror Protocol has traded 19.7% lower against the dollar.", "rights": "dailypolitical.com", "rank": 793836, "topic": "finance", "country": "US", "language": "en", "authors": "Trevor Kearing", "media": "https://www.americanbankingnews.com/wp-content/timthumb/timthumb.php?src=https://www.marketbeat.com/logos/cryptocurrencies/mirror-protocol-MIR.png?v=2022-10-05&w=240&h=240&zc=2", "is_opinion": false, "twitter_account": "@MarketBeatCom", "_score": null, "_id": "0a6e7e0bef62e14dbb0c4d1160e67ee3"}, {"title": "Luxurious Pro Network Token Trading Down 49.4% This Week (LPNT)", "author": "Trevor Kearing", "published_date": "2022-11-16 05:38:42", "published_date_precision": "timezone unknown", "link": "https://www.dailypolitical.com/2022/11/15/luxurious-pro-network-token-trading-down-49-4-this-week-lpnt.html", "clean_url": "dailypolitical.com", "excerpt": "Luxurious Pro Network Token (LPNT) traded down 5.8% against the US dollar during the one day period ending at 16:00 PM E.T. on November 15th. Luxurious Pro Network Token has a total market\u2026", "summary": "Luxurious Pro Network Token (LPNT) traded down 5.8% against the US dollar during the one day period ending at 16:00 PM E.T. on November 15th. Luxurious Pro Network Token has a total market capitalization of $11.76 million and approximately $183,897.00 worth of Luxurious Pro Network Token was traded on exchanges in the last 24 hours. In the last week, Luxurious Pro Network Token has traded down 49.4% against the US dollar. One Luxurious Pro Network Token token can currently be purchased for about $0.", "rights": "dailypolitical.com", "rank": 793836, "topic": "finance", "country": "US", "language": "en", "authors": "Trevor Kearing", "media": "https://www.americanbankingnews.com/wp-content/timthumb/timthumb.php?src=https://www.marketbeat.com/logos/cryptocurrencies/luxurious-pro-network-token-LPNT.png?v=2022-10-05&w=240&h=240&zc=2", "is_opinion": false, "twitter_account": "@RatingsNetwork", "_score": null, "_id": "9c277d3de134cd62c2b57f42c64e47e1"}, {"title": "Quantfury Token (QTF) Trading Down 9.7% Over Last Week", "author": "Trevor Kearing", "published_date": "2022-11-16 05:38:42", "published_date_precision": "timezone unknown", "link": "https://www.dailypolitical.com/2022/11/15/quantfury-token-qtf-trading-down-9-7-over-last-week.html", "clean_url": "dailypolitical.com", "excerpt": "Quantfury Token (QTF) traded up 2% against the U.S. dollar during the twenty-four hour period ending at 16:00 PM Eastern on November 15th. Quantfury Token has a market capitalization of $92.64 million\u2026", "summary": "Quantfury Token (QTF) traded up 2% against the U.S. dollar during the twenty-four hour period ending at 16:00 PM Eastern on November 15th. Quantfury Token has a market capitalization of $92.64 million and approximately $39,646.81 worth of Quantfury Token was traded on exchanges in the last 24 hours. In the last week, Quantfury Token has traded down 9.7% against the U.S. dollar. One Quantfury Token token can currently be purchased for about $9.26 or 0.00055119 BTC on cryptocurrency exchanges. \nHere's how similar cryptocurrencies have performed in the last 24 hours: \nKILT Protocol (KILT) traded 7.", "rights": "dailypolitical.com", "rank": 793836, "topic": "finance", "country": "US", "language": "en", "authors": "Trevor Kearing", "media": "https://www.americanbankingnews.com/wp-content/timthumb/timthumb.php?src=https://www.marketbeat.com/logos/cryptocurrencies/quantfury-token-QTF.png?v=2022-10-05&w=240&h=240&zc=2", "is_opinion": false, "twitter_account": "@MarketBeatCom", "_score": null, "_id": "50f9994a708083a5ec3fcc330cfc25eb"}, {"title": "ERC20 24 Hour Volume Tops $2.03 (ERC20)", "author": "Trevor Kearing", "published_date": "2022-11-16 05:38:42", "published_date_precision": "timezone unknown", "link": "https://www.dailypolitical.com/2022/11/15/erc20-24-hour-volume-tops-2-03-erc20.html", "clean_url": "dailypolitical.com", "excerpt": "ERC20 (ERC20) traded 0.3% higher against the US dollar during the 24 hour period ending at 16:00 PM ET on November 15th. ERC20 has a market cap of $8.99 million and approximately $2.03 worth of ERC20\u2026", "summary": "ERC20 (ERC20) traded 0.3% higher against the US dollar during the 24 hour period ending at 16:00 PM ET on November 15th. ERC20 has a market cap of $8.99 million and approximately $2.03 worth of ERC20 was traded on exchanges in the last 24 hours. One ERC20 token can currently be bought for about $0.0080 or 0.00000047 BTC on major exchanges. Over the last seven days, ERC20 has traded 13.7% lower against the US dollar. \nHere is how related cryptocurrencies have performed over the last 24 hours: \nBITCOIN ADDITIONAL (BTCA) traded 2.", "rights": "dailypolitical.com", "rank": 793836, "topic": "finance", "country": "US", "language": "en", "authors": "Trevor Kearing", "media": "https://www.americanbankingnews.com/wp-content/timthumb/timthumb.php?src=https://www.marketbeat.com/logos/cryptocurrencies/erc20-ERC20.png?v=2022-10-05&w=240&h=240&zc=2", "is_opinion": false, "twitter_account": "@MarketBeatCom", "_score": null, "_id": "d7892feac728a0e89d16cb9c525f53ef"}, {"title": "Function X (FX) Hits Market Capitalization of $70.25 Million", "author": "Trevor Kearing", "published_date": "2022-11-16 05:38:42", "published_date_precision": "timezone unknown", "link": "https://www.dailypolitical.com/2022/11/15/function-x-fx-hits-market-capitalization-of-70-25-million.html", "clean_url": "dailypolitical.com", "excerpt": "Function X (FX) traded up 3.3% against the dollar during the 24-hour period ending at 16:00 PM ET on November 15th. One Function X token can currently be purchased for approximately $0.17 or\u2026", "summary": "Function X (FX) traded up 3.3% against the dollar during the 24-hour period ending at 16:00 PM ET on November 15th. One Function X token can currently be purchased for approximately $0.17 or 0.00001023 BTC on popular cryptocurrency exchanges. Function X has a market cap of $70.25 million and $640,906.26 worth of Function X was traded on exchanges in the last 24 hours. During the last seven days, Function X has traded 15.5% lower against the dollar. \nHere's how related cryptocurrencies have performed during the last 24 hours: \nKILT Protocol (KILT) traded up 7.", "rights": "dailypolitical.com", "rank": 793836, "topic": "finance", "country": "US", "language": "en", "authors": "Trevor Kearing", "media": "https://www.americanbankingnews.com/wp-content/timthumb/timthumb.php?src=https://www.marketbeat.com/logos/cryptocurrencies/function-x-FX.png?v=2022-10-05&w=240&h=240&zc=2", "is_opinion": false, "twitter_account": "@RatingsNetwork", "_score": null, "_id": "1ab692de518c9f65a88a0dbd528cd016"}, {"title": "Midas Price Hits $36.16 on Exchanges (MIDAS)", "author": "Trevor Kearing", "published_date": "2022-11-16 05:38:42", "published_date_precision": "timezone unknown", "link": "https://www.dailypolitical.com/2022/11/15/midas-price-hits-36-16-on-exchanges-midas.html", "clean_url": "dailypolitical.com", "excerpt": "Midas (MIDAS) traded 1.5% higher against the US dollar during the 24 hour period ending at 16:00 PM ET on November 15th. In the last week, Midas has traded 3.8% lower against the US dollar. Midas has\u2026", "summary": "Midas (MIDAS) traded 1.5% higher against the US dollar during the 24 hour period ending at 16:00 PM ET on November 15th. In the last week, Midas has traded 3.8% lower against the US dollar. Midas has a market capitalization of $94.28 million and approximately $131,775.86 worth of Midas was traded on exchanges in the last 24 hours. One Midas token can now be bought for approximately $36.16 or 0.00215162 BTC on popular cryptocurrency exchanges. \nHere's how related cryptocurrencies have performed in the last 24 hours: \nKILT Protocol (KILT) traded 7.", "rights": "dailypolitical.com", "rank": 793836, "topic": "finance", "country": "US", "language": "en", "authors": "Trevor Kearing", "media": "https://www.americanbankingnews.com/wp-content/timthumb/timthumb.php?src=https://www.marketbeat.com/logos/cryptocurrencies/midas-MIDAS.png?v=2022-10-05&w=240&h=240&zc=2", "is_opinion": false, "twitter_account": "@MarketBeatCom", "_score": null, "_id": "e1b4f652d038398130f6b137f69a077e"}, {"title": "Metaverse Dualchain Network Architecture (DNA) Market Cap Hits $776,861.97", "author": "Trevor Kearing", "published_date": "2022-11-16 05:38:42", "published_date_precision": "timezone unknown", "link": "https://www.dailypolitical.com/2022/11/15/metaverse-dualchain-network-architecture-dna-market-cap-hits-776861-97.html", "clean_url": "dailypolitical.com", "excerpt": "Metaverse Dualchain Network Architecture (DNA) traded up 3.5% against the US dollar during the twenty-four hour period ending at 16:00 PM Eastern on November 15th. In the last seven days, Metaverse\u2026", "summary": "Metaverse Dualchain Network Architecture (DNA) traded up 3.5% against the US dollar during the twenty-four hour period ending at 16:00 PM Eastern on November 15th. In the last seven days, Metaverse Dualchain Network Architecture has traded down 17.6% against the US dollar. One Metaverse Dualchain Network Architecture coin can now be bought for $0.0000 or 0.00000000 BTC on cryptocurrency exchanges. Metaverse Dualchain Network Architecture has a total market capitalization of $776,861.97 and approximately $3,615.", "rights": "dailypolitical.com", "rank": 793836, "topic": "finance", "country": "US", "language": "en", "authors": "Trevor Kearing", "media": "https://www.americanbankingnews.com/wp-content/timthumb/timthumb.php?src=https://www.marketbeat.com/logos/cryptocurrencies/metaverse-dualchain-network-architecture-DNA.png?v&w=240&h=240&zc=2", "is_opinion": false, "twitter_account": "@RatingsNetwork", "_score": null, "_id": "4f243d4b26aabd6887e056e6254b3c62"}, {"title": "Merck & Co., Inc. (NYSE:MRK) Shares Bought by Roundview Capital LLC", "author": "Patrick Bannon", "published_date": "2022-11-16 05:36:41", "published_date_precision": "timezone unknown", "link": "https://www.dailypolitical.com/2022/11/15/merck-co-inc-nysemrk-shares-bought-by-roundview-capital-llc.html", "clean_url": "dailypolitical.com", "excerpt": "Roundview Capital LLC grew its holdings in Merck & Co., Inc. (NYSE:MRK \u2013 Get Rating) by 0.4% in the 2nd quarter, according to its most recent 13F filing with the Securities and Exchange Commission\u2026", "summary": "Roundview Capital LLC grew its holdings in Merck & Co., Inc. (NYSE:MRK \u2013 Get Rating) by 0.4% in the 2nd quarter, according to its most recent 13F filing with the Securities and Exchange Commission (SEC). The firm owned 52,755 shares of the company's stock after buying an additional 214 shares during the quarter. Roundview Capital LLC's holdings in Merck & Co., Inc. were worth $4,810,000 at the end of the most recent quarter. \nSeveral other hedge funds have also modified their holdings of the business.", "rights": "dailypolitical.com", "rank": 793836, "topic": "news", "country": "US", "language": "en", "authors": "Patrick Bannon", "media": "https://www.americanbankingnews.com/wp-content/timthumb/timthumb.php?src=https://www.marketbeat.com/logos/merck--co-inc-logo.gif&w=240&h=240&zc=2", "is_opinion": false, "twitter_account": "@MarketBeatCom", "_score": null, "_id": "04268be223505c763a69d1fc93fe88b2"}, {"title": "Fortune International to Expand Southeast Distribution With Opening of New D'Artagnan Warehouse and Distribution Facility in North Carolina", "author": "Press", "published_date": "2022-11-16 05:36:23", "published_date_precision": "timezone unknown", "link": "https://foodindustryexecutive.com/2022/11/fortune-international-to-expand-southeast-distribution-with-opening-of-new-dartagnan-warehouse-and-distribution-facility-in-north-carolina/", "clean_url": "foodindustryexecutive.com", "excerpt": "BENSENVILLE, IL / OXFORD, NC\u2013 November 15, 2022 \u2014 Fortune International, LLC ('Fortune'), the country's leading processor, distributor and importer of quality seafood, meats and gourmet products,\u2026", "summary": "BENSENVILLE, IL / OXFORD, NC\u2013 November 15, 2022 \u2014 Fortune International, LLC ('Fortune'), the country's leading processor, distributor and importer of quality seafood, meats and gourmet products, today announced the opening of a new warehouse and distribution facility in North Carolina, further expanding the company's reach in the expanding Southeast market.\nThe new 40,000-square-foot warehouse and distribution facility is located in Oxford, North Carolina, a day's drive of more than 170 million customers in the United Sates.", "rights": "foodindustryexecutive.com", "rank": 184967, "topic": "food", "country": "US", "language": "en", "authors": "Press", "media": "https://foodindustryexecutive.com/wp-content/uploads/2022/11/fortune-logo.png", "is_opinion": false, "twitter_account": null, "_score": null, "_id": "9c17e19c5d554ad4bc0c513ca638c8c4"}, {"title": "XFL: D.C. Defenders Announce Eric Dungey As Their First Quarterback", "author": "Mike Mitchell", "published_date": "2022-11-16 05:35:57", "published_date_precision": "timezone unknown", "link": "https://xflnewshub.com/xfl-news/xfl-d-c-defenders-announce-eric-dungey-as-their-first-quarterback/", "clean_url": "xflnewshub.com", "excerpt": "Eric Dungey is back with the XFL. The DC Defenders have their first quarterback as the team prepares to select upwards of 50 players in the next two days of the XFL Draft.QUOTE FROM D.C. DEFENDERS\u2026", "summary": "Eric Dungey is back with the XFL. The DC Defenders have their first quarterback as the team prepares to select upwards of 50 players in the next two days of the XFL Draft.QUOTE FROM D.C. DEFENDERS HEAD COACH REGGIE BARLOW'We are very excited to add Eric as a true dual threat for the Defenders,' head coach Reggie Barlow said. 'Eric has the ability to affect the game not just with his arm, but with his mobility and running ability, which gives us even more options on offense.'XFL head coaches announced 15 quarterback selections on Tuesday in the league's first wave of player additions through a three-day draft/selection process.", "rights": "xflnewshub.com", "rank": 252903, "topic": "news", "country": "US", "language": "en", "authors": "Mark Perry,Mike Mitchell", "media": "https://nhfantasystorage.blob.core.windows.net/xflnewshub-storage/2022/11/IMG-9885-1-1000x600.jpg", "is_opinion": false, "twitter_account": "@XFLNewsHub", "_score": null, "_id": "54a26c6fbed0aebbbbab1052072008d7"}], "user_input": {"lang": ["en"], "not_lang": null, "countries": ["US"], "not_countries": null, "page": 1, "size": 10, "sources": null, "not_sources": null, "topic": null, "from": "2022-11-02 05:38:50"}}